cl__1 = 0.01;
Geometry.CopyMeshingMethod = 1;

// Box Geometry
Point(1) = {0, 0, 0, 1};
Point(2) = {1, 0, 0, 1};
Point(3) = {1, 1, 0, 1};
Point(4) = {0, 1, 0, 1};
Point(5) = {0, 1, 1, 1};
Point(6) = {0, 0, 1, 1};
Point(10) = {1, 0, 1, 1};
Point(14) = {1, 1, 1, 1};
Line(1) = {1, 2};
Line(2) = {2, 3};
Line(3) = {3, 4};
Line(4) = {4, 1};
Line(8) = {5, 6};
Line(9) = {6, 10};
Line(10) = {10, 14};
Line(11) = {14, 5};
Line(13) = {4, 5};
Line(14) = {1, 6};
Line(18) = {2, 10};
Line(22) = {3, 14};
Line Loop(6) = {4, 1, 2, 3};
Plane Surface(6) = {6};
Line Loop(15) = {4, 14, -8, -13};
Ruled Surface(15) = {15};
Line Loop(19) = {1, 18, -9, -14};
Ruled Surface(19) = {19};
Line Loop(23) = {2, 22, -10, -18};
Ruled Surface(23) = {23};
Line Loop(27) = {3, 13, -11, -22};
Ruled Surface(27) = {27};
Line Loop(28) = {8, 9, 10, 11};
Plane Surface(28) = {28};
Surface Loop(1) = {6, 28, 15, 19, 23, 27};
Volume(1) = {1};
Transfinite Line {9} = 10 Using Progression 1;
Transfinite Line {10} = 10 Using Progression 1;
Transfinite Line {11} = 10 Using Progression 1;
Transfinite Line {8} = 10 Using Progression 1;
Transfinite Line {18} = 10 Using Progression 1;
Transfinite Line {22} = 10 Using Progression 1;
Transfinite Line {13} = 10 Using Progression 1;
Transfinite Line {14} = 10 Using Progression 1;
Transfinite Line {1} = 10 Using Progression 1;
Transfinite Line {2} = 10 Using Progression 1;
Transfinite Line {3} = 10 Using Progression 1;
Transfinite Line {4} = 10 Using Progression 1;
Transfinite Surface {28};
Transfinite Surface {23};
Transfinite Surface {6};
Transfinite Surface {15};
Transfinite Surface {19};
Transfinite Surface {27};
Recombine Surface {15, 28, 23, 6, 19, 27};
Transfinite Volume{1} = {6, 10, 14, 5, 1, 2, 3, 4};
Translate {1, 0, 0} {
  Duplicata { Volume{1}; }
}
