c
c  Created from file    : /data/wlg333/ms_thesis/mcnp-th/meshes/assembly.inp
c  Using data cards file: /data/wlg333/ms_thesis/mcnp-th/mcnp/dataCards/blockRun.dat
c  Created on           :  3-19-2015 @ 21:51:41
c
c
c PSEUDO CELLS
01       1     -10.2400      0  u=1
02       2     -10.2400      0  u=1
03       3     -10.2400      0  u=1
04       4     -10.2400      0  u=1
05       5     -10.2400      0  u=1
06       6     -10.2400      0  u=1
07       7     -10.2400      0  u=1
08       8     -10.2400      0  u=1
09       9     -10.2400      0  u=1
10      10     -10.2400      0  u=1
11      11     -10.2400      0  u=1
12      12     -10.2400      0  u=1
13      13     -10.2400      0  u=1
14      14     -10.2400      0  u=1
15      15     -10.2400      0  u=1
16      16     -10.2400      0  u=1
17      17     -10.2400      0  u=1
18      18     -10.2400      0  u=1
19      19     -10.2400      0  u=1
20      20     -10.2400      0  u=1
21      21     -1.00000      0  u=1
22      22     -1.00000      0  u=1
23      23     -1.00000      0  u=1
24      24     -1.00000      0  u=1
25      25     -1.00000      0  u=1
26      26     -1.00000      0  u=1
27      27     -1.00000      0  u=1
28      28     -1.00000      0  u=1
29      29     -1.00000      0  u=1
30      30     -1.00000      0  u=1
31      50     -1.00000      0  u=1
32      51     -1.00000      0  u=1
33       0                   0  u=1
c
c LEGACY CELLS
34  0  1000 -1001 -999  fill=1 
35  0  -1000:1001:999 

c
c SURFACES
*999  RPP  -1e-07  3.0000001  -1e-07  1.0000001  0  0 
1001  PZ  130.0000001 
1000  PZ  -30.0000001 

c
c  DATA CARDS
embed1 meshgeo=abaqus
       mgeoin=/data/wlg333/ms_thesis/mcnp-th/meshes/assembly.inp
       meeout=/data/wlg333/ms_thesis/mcnp-th/meshes/assembly.eeout
       length= 1.00000E+00
       background=      33
       matcell=  1  1  2  2  3  3  4  4  5  5  6  6  7  7  8  8  9  9 10 10
                11 11 12 12 13 13 14 14 15 15 16 16 17 17 18 18 19 19 20 20
                21 21 22 22 23 23 24 24 25 25 26 26 27 27 28 28 29 29 30 30
                31 31 32 32
c
embee4:n embed=1
c
imp:n 1      33R  0
c
sdef  pos= volumer
c
mode n
kcode 1.e4 1.0 20 60
embee6:n embed=1
c
m1    8016.71c    0.0337788711705
       92235.71c    0.000360827595102
       92235.70c    0.000127163910168
       8016.70c    0.0119044479896
       92238.71c    0.0165239212272
       92238.70c    0.00582340836202
       92236.70c    5.82111900008e-07
       92234.71c    2.98829302893e-06
       92236.71c    1.65174251627e-06
       92234.70c    1.05314291769e-06
c
m2    8016.71c    0.0337788711705
       92235.71c    0.000360827595102
       92235.70c    0.000127163910168
       8016.70c    0.0119044479896
       92238.71c    0.0165239212272
       92238.70c    0.00582340836202
       92236.70c    5.82111900008e-07
       92234.71c    2.98829302893e-06
       92236.71c    1.65174251627e-06
       92234.70c    1.05314291769e-06
c
m3    8016.71c    0.0337788711705
       92235.71c    0.000360827595102
       92235.70c    0.000127163910168
       8016.70c    0.0119044479896
       92238.71c    0.0165239212272
       92238.70c    0.00582340836202
       92236.70c    5.82111900008e-07
       92234.71c    2.98829302893e-06
       92236.71c    1.65174251627e-06
       92234.70c    1.05314291769e-06
c
m4    8016.71c    0.0337788711705
       92235.71c    0.000360827595102
       92235.70c    0.000127163910168
       8016.70c    0.0119044479896
       92238.71c    0.0165239212272
       92238.70c    0.00582340836202
       92236.70c    5.82111900008e-07
       92234.71c    2.98829302893e-06
       92236.71c    1.65174251627e-06
       92234.70c    1.05314291769e-06
c
m5    8016.71c    0.0337788711705
       92235.71c    0.000360827595102
       92235.70c    0.000127163910168
       8016.70c    0.0119044479896
       92238.71c    0.0165239212272
       92238.70c    0.00582340836202
       92236.70c    5.82111900008e-07
       92234.71c    2.98829302893e-06
       92236.71c    1.65174251627e-06
       92234.70c    1.05314291769e-06
c
m6    8016.71c    0.0337788711705
       92235.71c    0.000360827595102
       92235.70c    0.000127163910168
       8016.70c    0.0119044479896
       92238.71c    0.0165239212272
       92238.70c    0.00582340836202
       92236.70c    5.82111900008e-07
       92234.71c    2.98829302893e-06
       92236.71c    1.65174251627e-06
       92234.70c    1.05314291769e-06
c
m7    8016.71c    0.0337788711705
       92235.71c    0.000360827595102
       92235.70c    0.000127163910168
       8016.70c    0.0119044479896
       92238.71c    0.0165239212272
       92238.70c    0.00582340836202
       92236.70c    5.82111900008e-07
       92234.71c    2.98829302893e-06
       92236.71c    1.65174251627e-06
       92234.70c    1.05314291769e-06
c
m8    8016.71c    0.0337788711705
       92235.71c    0.000360827595102
       92235.70c    0.000127163910168
       8016.70c    0.0119044479896
       92238.71c    0.0165239212272
       92238.70c    0.00582340836202
       92236.70c    5.82111900008e-07
       92234.71c    2.98829302893e-06
       92236.71c    1.65174251627e-06
       92234.70c    1.05314291769e-06
c
m9    8016.71c    0.0337788711705
       92235.71c    0.000360827595102
       92235.70c    0.000127163910168
       8016.70c    0.0119044479896
       92238.71c    0.0165239212272
       92238.70c    0.00582340836202
       92236.70c    5.82111900008e-07
       92234.71c    2.98829302893e-06
       92236.71c    1.65174251627e-06
       92234.70c    1.05314291769e-06
c
m10    8016.71c    0.0337788711705
       92235.71c    0.000360827595102
       92235.70c    0.000127163910168
       8016.70c    0.0119044479896
       92238.71c    0.0165239212272
       92238.70c    0.00582340836202
       92236.70c    5.82111900008e-07
       92234.71c    2.98829302893e-06
       92236.71c    1.65174251627e-06
       92234.70c    1.05314291769e-06
c
m11    8016.71c    0.0337788711705
       92235.71c    0.000360827595102
       92235.70c    0.000127163910168
       8016.70c    0.0119044479896
       92238.71c    0.0165239212272
       92238.70c    0.00582340836202
       92236.70c    5.82111900008e-07
       92234.71c    2.98829302893e-06
       92236.71c    1.65174251627e-06
       92234.70c    1.05314291769e-06
c
m12    8016.71c    0.0337788711705
       92235.71c    0.000360827595102
       92235.70c    0.000127163910168
       8016.70c    0.0119044479896
       92238.71c    0.0165239212272
       92238.70c    0.00582340836202
       92236.70c    5.82111900008e-07
       92234.71c    2.98829302893e-06
       92236.71c    1.65174251627e-06
       92234.70c    1.05314291769e-06
c
m13    8016.71c    0.0337788711705
       92235.71c    0.000360827595102
       92235.70c    0.000127163910168
       8016.70c    0.0119044479896
       92238.71c    0.0165239212272
       92238.70c    0.00582340836202
       92236.70c    5.82111900008e-07
       92234.71c    2.98829302893e-06
       92236.71c    1.65174251627e-06
       92234.70c    1.05314291769e-06
c
m14    8016.71c    0.0337788711705
       92235.71c    0.000360827595102
       92235.70c    0.000127163910168
       8016.70c    0.0119044479896
       92238.71c    0.0165239212272
       92238.70c    0.00582340836202
       92236.70c    5.82111900008e-07
       92234.71c    2.98829302893e-06
       92236.71c    1.65174251627e-06
       92234.70c    1.05314291769e-06
c
m15    8016.71c    0.0337788711705
       92235.71c    0.000360827595102
       92235.70c    0.000127163910168
       8016.70c    0.0119044479896
       92238.71c    0.0165239212272
       92238.70c    0.00582340836202
       92236.70c    5.82111900008e-07
       92234.71c    2.98829302893e-06
       92236.71c    1.65174251627e-06
       92234.70c    1.05314291769e-06
c
m16    8016.71c    0.0337788711705
       92235.71c    0.000360827595102
       92235.70c    0.000127163910168
       8016.70c    0.0119044479896
       92238.71c    0.0165239212272
       92238.70c    0.00582340836202
       92236.70c    5.82111900008e-07
       92234.71c    2.98829302893e-06
       92236.71c    1.65174251627e-06
       92234.70c    1.05314291769e-06
c
m17    8016.71c    0.0337788711705
       92235.71c    0.000360827595102
       92235.70c    0.000127163910168
       8016.70c    0.0119044479896
       92238.71c    0.0165239212272
       92238.70c    0.00582340836202
       92236.70c    5.82111900008e-07
       92234.71c    2.98829302893e-06
       92236.71c    1.65174251627e-06
       92234.70c    1.05314291769e-06
c
m18    8016.71c    0.0337788711705
       92235.71c    0.000360827595102
       92235.70c    0.000127163910168
       8016.70c    0.0119044479896
       92238.71c    0.0165239212272
       92238.70c    0.00582340836202
       92236.70c    5.82111900008e-07
       92234.71c    2.98829302893e-06
       92236.71c    1.65174251627e-06
       92234.70c    1.05314291769e-06
c
m19    8016.71c    0.0337788711705
       92235.71c    0.000360827595102
       92235.70c    0.000127163910168
       8016.70c    0.0119044479896
       92238.71c    0.0165239212272
       92238.70c    0.00582340836202
       92236.70c    5.82111900008e-07
       92234.71c    2.98829302893e-06
       92236.71c    1.65174251627e-06
       92234.70c    1.05314291769e-06
c
m20    8016.71c    0.0337788711705
       92235.71c    0.000360827595102
       92235.70c    0.000127163910168
       8016.70c    0.0119044479896
       92238.71c    0.0165239212272
       92238.70c    0.00582340836202
       92236.70c    5.82111900008e-07
       92234.71c    2.98829302893e-06
       92236.71c    1.65174251627e-06
       92234.70c    1.05314291769e-06
c
m21    1001.70c    0.0174263013673
       8016.70c    0.00871315068365
       8016.71c    0.0247235650648
       1001.71c    0.0494471301297
c
m22    1001.70c    0.0174263013673
       8016.70c    0.00871315068365
       8016.71c    0.0247235650648
       1001.71c    0.0494471301297
c
m23    1001.70c    0.0174263013673
       8016.70c    0.00871315068365
       8016.71c    0.0247235650648
       1001.71c    0.0494471301297
c
m24    1001.70c    0.0174263013673
       8016.70c    0.00871315068365
       8016.71c    0.0247235650648
       1001.71c    0.0494471301297
c
m25    1001.70c    0.0174263013673
       8016.70c    0.00871315068365
       8016.71c    0.0247235650648
       1001.71c    0.0494471301297
c
m26    1001.70c    0.0174263013673
       8016.70c    0.00871315068365
       8016.71c    0.0247235650648
       1001.71c    0.0494471301297
c
m27    1001.70c    0.0174263013673
       8016.70c    0.00871315068365
       8016.71c    0.0247235650648
       1001.71c    0.0494471301297
c
m28    1001.70c    0.0174263013673
       8016.70c    0.00871315068365
       8016.71c    0.0247235650648
       1001.71c    0.0494471301297
c
m29    1001.70c    0.0174263013673
       8016.70c    0.00871315068365
       8016.71c    0.0247235650648
       1001.71c    0.0494471301297
c
m30    1001.70c    0.0174263013673
       8016.70c    0.00871315068365
       8016.71c    0.0247235650648
       1001.71c    0.0494471301297
c
m50    1001.70c    0.0174263013673
       8016.70c    0.00871315068365
       8016.71c    0.0247235650648
       1001.71c    0.0494471301297
c
m51    1001.70c    0.0174263013673
       8016.70c    0.00871315068365
       8016.71c    0.0247235650648
       1001.71c    0.0494471301297
tmp  4.48084e-08
     4.48084e-08
     4.48084e-08
     4.48084e-08
     4.48084e-08
     4.48084e-08
     4.48084e-08
     4.48084e-08
     4.48084e-08
     4.48084e-08
     4.48084e-08
     4.48084e-08
     4.48084e-08
     4.48084e-08
     4.48084e-08
     4.48084e-08
     4.48084e-08
     4.48084e-08
     4.48084e-08
     4.48084e-08
     4.48084e-08
     4.48084e-08
     4.48084e-08
     4.48084e-08
     4.48084e-08
     4.48084e-08
     4.48084e-08
     4.48084e-08
     4.48084e-08
     4.48084e-08
     4.48084e-08
     4.48084e-08
